{
    "navbar-home" : "Home",
    "navbar-freeproxylist" : "Free proxy list",
    "navbar-proxychecker" : "Proxy checker",
    "navbar-onlineproxychecker" : "Online proxy checker",
    "navbar-proxyfilter" : "Proxy filter",
    "navbar-extras" : "Extras",
    "navbar-extras-donate" : "Donate",
    "navbar-extras-status" : "Status",
    "navbar-extras-poll" : "Poll",
    "navbar-extras-api" : "Api",
    "navbar-communities" : "Communities",
    "navbar-communities-discord" : "Discord",
    "navbar-communities-telegram" : "Telegram",
    "navbar-communities-reddit" : "Reddit",
    "navbar-info" : "Info",
    "navbar-info-about" : "About",
    "navbar-info-faq" : "FAQ",
    "navbar-info-contact" : "Contact",
    "banner-1-title" : "Free",
    "banner-1-subtitle" : "proxy list",
    "banner-1-desc" : "We update our free proxy lists every 15 minutes to ensure you get the most fresh & working proxies.",
    "banner-1-button" : "Get free proxies now",
    "banner-2-title" : "Fast",
    "banner-2-subtitle" : "Proxy checker",
    "banner-2-desc" : "We provide as up to date proxies as we can but we still suggest checking the proxies with your preferred timeout.",
    "banner-2-button" : "Download proxy checker",
    "banner-3-title" : "Join",
    "banner-3-subtitle" : "Our discord server",
    "banner-3-desc" : "Do you have any questions or just want to have a chat? Join our discord server!",
    "banner-3-button" : "Join now!",
    "banner-4-title" : "More",
    "banner-4-subtitle" : "About proxyscrape",
    "banner-4-desc" : "Here we explain how proxyscrape was born, how de check the proxies in the backend and more.",
    "banner-4-button" : "Read More about proxyscrape",
    "home-window-title" : "Home - Here it starts",
    "home-title" : "Welcome home",
    "home-body" : "Welcome to Proxyscrape, here we provide proxy information & how to use them, a very fast proxy checker and 30000+ HTTP, Socks4 and Socks5 proxy lists that are updated every 15 minutes.",
    "home-button-1" : "Free",
    "home-button-2" : "Up to date proxies",
    "home-button-3" : "Fast & easy",
    "freeproxylist-window-title" : "Free Proxy List - Just Checked Proxies",
    "freeproxylist-title" : "Free Proxy List - Just Checked Proxies",
	"freeproxylist-currentpage" : "Free Proxy List",
    "freeproxylist-http-title" : "HTTP Checked proxy list",
    "freeproxylist-http-desc" : "HTTP checked proxy list, just download them and you can use the proxies straight away!",
    "freeproxylist-socks4-title" : "Socks4 Checked proxy list",
    "freeproxylist-socks4-desc" : "Socks4 checked proxy list, just download them and you can use the proxies straight away!",
    "freeproxylist-socks5-title" : "Socks5 Checked proxy list",
    "freeproxylist-socks5-desc" : "Socks5 checked proxy list, just download them and you can use the proxies straight away!",
    "freeproxylist-lastupdated" : "Last updated:",
    "freeproxylist-minsago" : "minutes ago",
    "freeproxylist-timeout" : "Timeout:",
    "freeproxylist-country" : "Country:",
    "freeproxylist-ssl" : "SSL",
    "freeproxylist-anonymity" : "Anonymity:",
    "freeproxylist-onlyfor" : "only for http proxies",
	"freeproxylist-all" : "all",
	"freeproxylist-yes" : "yes",
	"freeproxylist-no" : "no",
    "proxychecker-window-title" : "Free fast proxy checker",
    "proxychecker-title" : "PROXY CHECKER",
    "proxychecker-desc" : "Very fast proxy checker made by WolfCrawler it can check http proxies, Socks5 proxies and Socks4 proxies.",
	"onlineproxychecker-window-title" : "Online proxy checker",
	"onlineproxychecker-invalid" : "No proxies could be loaded. The list is invalid",
	"onlineproxychecker-notfinished" : "The checker has not finished",
	"onlineproxychecker-title" : "Online proxy checker",
	"onlineproxychecker-check" : "CHECK PROXIES",
	"onlineproxychecker-status" : "Checker status",
	"onlineproxychecker-dead" : "Dead",
	"onlineproxychecker-working" : "Working",
	"onlineproxychecker-deadproxies" : "Dead proxies",
	"onlineproxychecker-workingproxies" : "Working proxies",
	"onlineproxychecker-totalproxies" : "Total proxies",
	"onlineproxychecker-download" : "DOWNLOAD WORKING PROXIES",
    "proxyfilter-window-title" : "Online proxy filter",
    "proxyfilter-big-title" : "PROXY FILTER",
    "proxyfilter-title" : "PROXY FILTER",
    "proxyfilter-desc" : "Filter proxies to ip:port format",
    "proxyfilter-button" : "FILTER",
    "donate-window-title" : "Donate to Proxyscrape",
    "donate-big-title" : "DONATE",
    "donate-title" : "DONATE TO PROXYSCRAPE",
    "donate-desc" : "To keep ProxyScrape AD free, we need donations. The donated money is used to pay our servers and sometimes used to pay developers if I'm unable to make or fix something myself.",
    "donate-month-server-title" : "MONTHLY DONATION GOAL FOR SERVERS",
    "donate-month-projects-title" : "MONTHLY DONATION GOAL FOR FUTURE PROJECTS",
    "donate-subdesc" : "This money goes to a coinbase vault.",
	"donate-complete" : "Complete",
    "status-window-title" : "Proxyscrape server status",
    "status-big-title" : "STATUS",
    "status-title" : "SERVER STATUS",
    "status-desc" : "This page is made to check if the checking server are working fine.",
	"api-window-title" : "ProxyScrape proxy API",
    "api-big-title" : "API DOCUMENTATION",
	"api-introduction-title" : "INTRODUCTION",
	"api-introduction-desc" : "Hello and welcome to the ProxyScrape API, the API can be used to download, display, get the proxy amount and last updated time in a efficient way.",
	"api-request-types-title" : "REQUEST TYPES",
	"api-request-types-desc" : "There are 4 types of API requests you can make, including: getproxies, displayproxies, amountproxies and lastupdated",
	"api-request-types-getproxies-title" : "getproxies",
	"api-request-types-getproxies-desc" : "getproxies will immediately download the proxies once navigated to the url.</br>getproxies supports multiple parameters including:",
	"api-request-types-box" : "Output: Downloads elite http proxies with SSL enabled with a timeout of 5000ms located in the US in the common ip:port format.",
	"api-request-types-displayproxies-title" : "displayproxies",
	"api-request-types-displayproxies-description" : "displayproxies will not download the proxies instead it will display the proxies on the website.</br>displayproxies supports multiple parameters including:",
	"api-request-types-displayproxies-box" : "Output: Displays elite http proxies with SSL disabled with a timeout of 7000ms located in the DE in the common ip:port format.",
	"api-request-types-amountproxies-title" : "amountproxies",
	"api-request-types-amountproxies-desc" : "amountproxies will return the amount of available proxies for the given conditions.</br>amountproxies supports multiple parameters including:",
	"api-request-types-amountproxies-box" : "Output: Will return the amount of proxies for the given conditions.",
	"api-request-types-lastupdated-title" : "lastupdated",
	"api-request-types-lastupdated-desc" : "lastupdated will return when the proxies where last updated.</br>lastupdated only requires 1 parameter:",
	"api-request-types-lastupdated-box" : "Output: Will return the last updated time for the given conditions, lastupdated only requires the proxytype parameter.",
	"api-parameters-title" : "PARAMETERS",
	"api-parameters-desc" : "Parameters are used to tell the API what kind of proxies you want.",
	"api-parameters-proxytype-title" : "proxytype",
	"api-parameters-proxytype-desc1" : "proxytype has 4 allowed parameters:",
	"api-parameters-proxytype-desc2" : "When you don't use the parameter the proxy type will be automaticly set to all.",
	"api-parameters-timeout-title" : "timeout",
	"api-parameters-timeout-desc" : "The timeout is in ms.</br>When no timeout is defined the timeout is automaticly set to 10 000ms.",
	"api-parameters-country-title" : "country",
	"api-parameters-country-desc1" : "The country parameter can be any Alpha 2 ISO country code or 'all', the country codes can be found <a href='https://www.nationsonline.org/oneworld/country_code_list.htm'>here</a>.",
	"api-parameters-country-desc2" : "When no country is defined the country will be automaticly set to all",
	"api-parameters-anonymity-title" : "anonymity",
	"api-parameters-anonymity-desc1" : "anonymity has 4 allowed parameters:",
	"api-parameters-anonymity-desc2" : "When no anonymity level is defined it will be automaticly set to all",
	"api-parameters-ssl-title" : "ssl",
	"api-parameters-ssl-desc1" : "ssl has 3 allowed parameters:",
	"api-parameters-ssl-desc2" : "When ssl is not defined it will be automaticly set to all.",
	"api-input" : "Input",
    "aboutus-window-title" : "About us",
    "aboutus-big-title" : "ABOUT US",
    "aboutus-title" : "About Proxyscrape",
    "aboutus-subtitle" : "How proxyscrape was born and why we do this",
    "aboutus-desc" : "We here at ProxyScrape work tirelessly (beep-boop) to provide you with consistent, reliable, easy-access HTTP and Socks proxies from all over the globe. We run a constant system to make sure you're never without fresh proxies! The proxies are public; you can use them however you wish. We believed there was a severe lack of reliable, clean sources of proxies; hence, ProxyScrape was born. We know there are many other sources out there, so we've gone ahead and done the work for you! All you need to do is click on the buttons, and you will download proxies that have been scraped from many sources. When you download the checked proxy source, you download proxies that were already verified to be working when they were uploaded. Make sure to check proxies again with your preferred timeout using your own proxy checker. This site is constantly and automatically updated from our very own custom-made proxy system. Our proxy checker checks proxies with 800+ threads and a proxy timeout of 10 seconds. In the backend, we use a python proxy checker and a python proxy scraper with over 86+ proxy sources. Keep checking back if you ever need any more proxies. Feel free to share and to tell your friends about ProxyScrape!",
    "faq-window-title" : "Frequently asked questions",
    "faq-big-title" : "FREQUENTLY ASKED QUESTIONS",
    "faq-title" : "HERE ARE SOME COMMON QUESTIONS ABOUT PROXIES & PROXYSCRAPE",
    "faq-opt-connect" : "Connect to proxies",
    "faq-opt-connect-firefox-title" : "How to connect to proxies in Firefox?",
    "faq-opt-connect-firefox-desc" : "1. Open the Firefox Menu and select Options. <br>2. In the Options window click on the Advanced icon. <br>3. Select the Network Tab. <br>4. In the Connection section click the Settings button. <br>5. In the Connection Settings window select 'Manual proxy configuration' and enter the proxy address and port in the HTTP field. <br>6. Select 'use this proxy server for all protocols.' <br>7. Close the Connection Settings and Options windows by clicking on the OK button." ,
    "faq-opt-connect-internet-explorer-title" : "How to connect to proxies in Internet Explorer?",
    "faq-opt-connect-internet-explorer-desc" : "1. Click the Tools icon in the top right corner, then click on Internet options. <br>2. Click on the connections tab. <br>3. Click the 'LAN Settings' button. <br>4. In the LAN Settings, uncheck the box that says 'Automatically detect settings'. <br>5. In the Proxy Server Section, click the checkbox to enable 'Use a proxy server for your LAN...' <br>6. In the address field, enter the IP address of your proxy, and the proxy port number in the port field. <br>7. Press OK and then OK again to save your settings.",
    "faq-opt-connect-google-chrome-title" : "How to connect to proxies in Google Chrome?",
    "faq-opt-connect-google-chrome-desc" : "1. Open the settings and scroll down to advanced. <br>2. Click open proxy settings. <br>3. Click the 'LAN Settings' button. <br>4. In the LAN Settings, uncheck the box that says 'Automatically detect settings'. <br>5. In the Proxy Server Section, click the checkbox to enable 'Use a proxy server for your LAN...' <br>6. In the address field, enter the IP address of your proxy, and the proxy port number in the port field. <br>7. Press OK and then OK again to save your settings.",
    "faq-opt-connect-opera-title" : "How to connect to proxies in Opera?",
    "faq-opt-connect-opera-desc" : "1. Open the settings. <br>2. Click open change proxy settings. <br>3. Click the 'LAN Settings' button. <br>4. In the LAN Settings, uncheck the box that says 'Automatically detect settings'. <br>5. In the Proxy Server Section, click the checkbox to enable 'Use a proxy server for your LAN...' <br>6. In the address field, enter the IP address of your proxy, and the proxy port number in the port field. <br>7. Press OK and then OK again to save your settings",
    "faq-opt-security" : "Security",
    "faq-opt-security-log-title" : "What do we log?",
    "faq-opt-security-log-desc" : "We log everything the proxy server does, checking proxies scraping proxies ect, we also use Google analytics to track user activity. We currently do not log any ip's of our users.",
    "faq-opt-security-protection-title" : "Does a proxy protect me form hackers?",
    "faq-opt-security-protection-desc" : "A proxy may add a extra layer of protection but this still doesn't make you 100% safe. The proxies we provide are public proxies, this means the proxy can also be infected.",
    "faq-opt-security-ip-title" : "Can people see my ip if original ip if I use a proxy?",
    "faq-opt-security-ip-desc" : "Depending on the proxies you use, transparent proxy, elite proxy, anonymous proxy, people may or may not see your original ip address.",
    "faq-opt-security-crypt-title" : "Is my data encrypted when using a proxy?",
    "faq-opt-security-crypt-desc" : "If use a secure sockets layer proxy or ssl proxy your data is mostly encrypted between you and the proxy server.",
    "faq-opt-limits" : "Limitations",
    "faq-opt-limits-purpose-title" : "For what purpose can i use this proxies?",
    "faq-opt-limits-purpose-desc" : "These proxies are totally public and you can use them for anything you want but some of the proxies can be banned on the sites you want to use.",
    "faq-opt-limits-bandwidth-title" : "What is the proxy bandwidth?",
    "faq-opt-limits-bandwidth-desc" : "If the bandwidth of the proxy is exceeded the proxy will probably die.",
    "faq-opt-limits-timeout-title" : "What is the proxy connection timeout?",
    "faq-opt-limits-timeout-desc" : "The connection timeout can be anything from 50ms up to 100 seconds but we check our proxy list with 30 seconds timeout.",
    "faq-opt-limits-scrape-title" : "Can i use a scraper to download the proxies from this website?",
    "faq-opt-limits-scrape-desc" : "Yes you can use a proxy scraper to download the proxy list, as long as you don't harm the website we don't care.",
    "faq-opt-backend" : "Back-end",
    "faq-opt-backend-freeproxy-title" : "How often does the free proxy list update?",
    "faq-opt-backend-freeproxy-desc" : "The free proxy list is updating every 15-20 minutes.",
    "faq-opt-backend-protocols-title" : "What proxy protocols do you check for?",
    "faq-opt-backend-protocols-desc" : "We check for http(s), socks4 and socks5 protocol.",
    "faq-opt-backend-websites-title" : "How many websites do you scrape from?",
    "faq-opt-backend-websites-desc" : "Between 80-100 proxy websites depending if they are still working.",
    "faq-opt-backend-language-title" : "In what coding language is your proxy checker coded?",
    "faq-opt-backend-language-desc" : "Our proxy checker is coded in python3.",
    "faq-opt-money" : "Money & donations",
    "faq-opt-money-earn-title" : "How do you make money of this proxy website?",
    "faq-opt-money-earn-desc" : "Currently we don't make any profit of this proxy website.",
    "faq-opt-money-donate-title" : "Can I donate?",
    "faq-opt-money-donate-desc" : "Yes you can donate with crypto's: <br>BTC: 3Bexk92aipRFeW3rQK3SBKBNTQ3URqiR79 <br>ETH: 0x0D3B38690ad9A65737532E694AD534646b8E2562 <br>We will try to reward the donations by giving you a thanks on the about page with a url to your website / profile.",
    "faq-opt-money-ads-title" : "Can you make my site pop-up when people click download?",
    "faq-opt-money-ads-desc" : "Yes for an acceptable price we will happily display your advertisement on our website, contact me on discord: Thiplol#0248.",
    "faq-opt-money-cost-title" : "How much do you pay for you proxy website",
    "faq-opt-money-cost-desc" : "It depends on what my plans are something between $30-40 a month.",
	"faq-opt-others" : "Others",
    "faq-opt-others-buy-title" : "What is the best place to buy proxies",
    "faq-opt-others-buy-desc" : "For paid proxies we suggest <a href='https://rsocks.net/signup?ref=E59nazidAezSO-GpRyxmcmH-MKKZwV3DiocjVH'>rSocks</a> and <a href='http://www.proxyrack.com/access/aff/go/psychicalts&#10;'>ProxyRack</a>.",
    "faq-opt-others-sell-title" : "Do you sell any proxies?",
    "faq-opt-others-sell-desc" : "As much as we would love to sell proxies, ipv4 proxies are very expensive and we don't have the money for that currently. Ipv6 proxies are very cheap, there are places out there selling millions for under $1 but most programs don't support ipv6 proxies yet.",
    "faq-opt-others-start-title" : "Why did you start this website?",
    "faq-opt-others-start-desc" : "We think there is a lack of free proxy list websites that display all online proxies.",
    "faq-opt-others-help-title" : "Who helped making this website?",
    "faq-opt-others-help-desc" : "The website is mainly made by <a href='https://www.nulled.to/user/1193005-notthiplol'>Thiplol</a> and <a href='https://www.nulled.to/user/1451856-amfuck'>AmKid</a>",
	"poll-title" : "Poll",
    "contact-big-title" : "CONTACT US",
    "contact-title" : "COMMUNICATION IS EVERYTHING",
    "contact-desc" : "Do you have any other questions or do you just want to do business? You can contact us here",
    "contact-button-title" : "Email us",
    "contact-button-desc" : "Or email directly to contact@proxyscrape.com",
    "footer-faq-title" : "Frequently asked questions",
    "footer-faq-desc" : "Do you have any questions about proxies or how to connect to them? Check out this proxy FAQ before contacting us.",
    "footer-faq-button" : "Go TtoFAQ",
    "footer-contact-title" : "Contact us",
    "footer-contact-desc" : "After reading the proxy FAQ you still have a question or maybe you want to donate to our free proxy service? You can contact us here.",
    "footer-contact-button" : "Contact us",
    "footer-discord-title" : "Join discord",
    "footer-discord-desc" : "Do you have any questions, or just want to have a chat? Join our discord server!",
    "footer-discord-button" : "Join discord",
    "footer-freeproxylist-title" : "Free proxy list",
    "footer-freeproxylist-desc" : "30.000+ free HTTP Socks5 and Socks4 Proxy lists, the proxies are updated every 15 minutes to ensure you get the most fresh proxies.",
    "footer-freeproxylist-button" : "Download free proxy list",
    "footer-about-title" : "About Proxyscrape",
    "footer-about-desc" : "Here we tell you a little extra about Proxyscrape, how we check the proxies and who is resposible for this sexy proxy website.",
    "footer-about-button" : "Read about us",
    "footer-checker-title" : "Proxy checker",
    "footer-checker-desc" : "A very fast proxy checker made by WolfCrawler. It can check http, socks5 and socks4 proxies at an incredible speed.",
    "footer-checker-button" : "Get fast proxy checker",
	"footer-notify-1" : "Make it yourself cozy and join the <a href='https://www.reddit.com/r/proxyscrape'> ProxyScrape sub-reddit</a>",
	"footer-notify-2" : "Join our <a href='https://t.me/proxyscrape'> Telegram </a>and get a clean overview of whats comming up!",
	"footer-notify-3" : "Join our<a href='https://discord.gg/GWtKtME'> discord </a>to know whats comming soon!",
	"footer-notify-4" : "Like ProxyScrape? Consider <a href='/en/donate'>donating!</a>",
	"footer-dark" : "Dark theme",
	"footer-light" : "Light theme",
	"footer-notify-close" : "Close"
}